Library\Bee\artifacts\mvdfrm\Unity.Services.Core.ref.dll_FF91F9BC6398EB7C.mvfrm
Library\Bee\artifacts\mvdfrm\UnityEngine.UI.ref.dll_AFC2E85BC2EDBC0B.mvfrm
Library\Bee\artifacts\mvdfrm\UnityEngine.AccessibilityModule.dll_1DFF2AC22356BAA7.mvfrm
Library\Bee\artifacts\mvdfrm\UnityEngine.AIModule.dll_5CED10F1CE337523.mvfrm
Library\Bee\artifacts\mvdfrm\UnityEngine.AndroidJNIModule.dll_5DA0A335FB61CC61.mvfrm
Library\Bee\artifacts\mvdfrm\UnityEngine.AnimationModule.dll_1095E589882E178D.mvfrm
Library\Bee\artifacts\mvdfrm\UnityEngine.ARModule.dll_165FD5F52B50D3EC.mvfrm
Library\Bee\artifacts\mvdfrm\UnityEngine.AssetBundleModule.dll_E4F4B5D0CF9D525B.mvfrm
Library\Bee\artifacts\mvdfrm\UnityEngine.AudioModule.dll_DCED653AD8B74D3F.mvfrm
Library\Bee\artifacts\mvdfrm\UnityEngine.ClothModule.dll_43D5C235B2D42C23.mvfrm
Library\Bee\artifacts\mvdfrm\UnityEngine.CoreModule.dll_91E973F8353191DA.mvfrm
Library\Bee\artifacts\mvdfrm\UnityEngine.CrashReportingModule.dll_5FD27FADCCB8D1B2.mvfrm
Library\Bee\artifacts\mvdfrm\UnityEngine.DirectorModule.dll_14E925AF35088677.mvfrm
Library\Bee\artifacts\mvdfrm\UnityEngine.dll_E234A58220A2B09B.mvfrm
Library\Bee\artifacts\mvdfrm\UnityEngine.DSPGraphModule.dll_1A3A8718A7695798.mvfrm
Library\Bee\artifacts\mvdfrm\UnityEngine.GameCenterModule.dll_87EDED50C1A2BD52.mvfrm
Library\Bee\artifacts\mvdfrm\UnityEngine.GIModule.dll_F52959FF69E25D3D.mvfrm
Library\Bee\artifacts\mvdfrm\UnityEngine.GridModule.dll_6F5A8FE64D8627D1.mvfrm
Library\Bee\artifacts\mvdfrm\UnityEngine.HotReloadModule.dll_91DEA38F6361330F.mvfrm
Library\Bee\artifacts\mvdfrm\UnityEngine.ImageConversionModule.dll_1CB9DA7C353FD4BA.mvfrm
Library\Bee\artifacts\mvdfrm\UnityEngine.IMGUIModule.dll_154D04A19EE8E120.mvfrm
Library\Bee\artifacts\mvdfrm\UnityEngine.InputLegacyModule.dll_7639D0EF678F084C.mvfrm
Library\Bee\artifacts\mvdfrm\UnityEngine.InputModule.dll_43632CEB4EEF71E3.mvfrm
Library\Bee\artifacts\mvdfrm\UnityEngine.JSONSerializeModule.dll_7E16B3FE22921B31.mvfrm
Library\Bee\artifacts\mvdfrm\UnityEngine.LocalizationModule.dll_825B5EB5E970F2A4.mvfrm
Library\Bee\artifacts\mvdfrm\UnityEngine.ParticleSystemModule.dll_B2E4C8FA3ACA5D40.mvfrm
Library\Bee\artifacts\mvdfrm\UnityEngine.PerformanceReportingModule.dll_3E28A9C4527D8099.mvfrm
Library\Bee\artifacts\mvdfrm\UnityEngine.Physics2DModule.dll_5D3BD57A292B0F22.mvfrm
Library\Bee\artifacts\mvdfrm\UnityEngine.PhysicsModule.dll_B3AFAAF93AFFA5F0.mvfrm
Library\Bee\artifacts\mvdfrm\UnityEngine.ProfilerModule.dll_472F5EE5CE620D84.mvfrm
Library\Bee\artifacts\mvdfrm\UnityEngine.RuntimeInitializeOnLoadManagerInitializerModule.dll_00E6CBF37109C3EB.mvfrm
Library\Bee\artifacts\mvdfrm\UnityEngine.ScreenCaptureModule.dll_97FE618336FE4793.mvfrm
Library\Bee\artifacts\mvdfrm\UnityEngine.SharedInternalsModule.dll_A0CB1951AC6DD00A.mvfrm
Library\Bee\artifacts\mvdfrm\UnityEngine.SpriteMaskModule.dll_711A5FE0E31252CC.mvfrm
Library\Bee\artifacts\mvdfrm\UnityEngine.SpriteShapeModule.dll_FE55E32B853F8A65.mvfrm
Library\Bee\artifacts\mvdfrm\UnityEngine.StreamingModule.dll_C52AD2D9D7B5CECB.mvfrm
Library\Bee\artifacts\mvdfrm\UnityEngine.SubstanceModule.dll_A1D5E7232308CCD9.mvfrm
Library\Bee\artifacts\mvdfrm\UnityEngine.SubsystemsModule.dll_DBC7C642B15A3ADF.mvfrm
Library\Bee\artifacts\mvdfrm\UnityEngine.TerrainModule.dll_CDF6266810BDEEDE.mvfrm
Library\Bee\artifacts\mvdfrm\UnityEngine.TerrainPhysicsModule.dll_B35F71CD540D57CD.mvfrm
Library\Bee\artifacts\mvdfrm\UnityEngine.TextCoreFontEngineModule.dll_2783F32B541E4618.mvfrm
Library\Bee\artifacts\mvdfrm\UnityEngine.TextCoreTextEngineModule.dll_6F6C299CE3A1FF36.mvfrm
Library\Bee\artifacts\mvdfrm\UnityEngine.TextRenderingModule.dll_C13DD38DEE35C788.mvfrm
Library\Bee\artifacts\mvdfrm\UnityEngine.TilemapModule.dll_6CF28DE9287ACFE7.mvfrm
Library\Bee\artifacts\mvdfrm\UnityEngine.TLSModule.dll_7B85B21B9676FAC4.mvfrm
Library\Bee\artifacts\mvdfrm\UnityEngine.UIElementsModule.dll_E00627AAB48676D6.mvfrm
Library\Bee\artifacts\mvdfrm\UnityEngine.UIElementsNativeModule.dll_34154DEF3746AF6D.mvfrm
Library\Bee\artifacts\mvdfrm\UnityEngine.UIModule.dll_5860AF1F2A7A7ACF.mvfrm
Library\Bee\artifacts\mvdfrm\UnityEngine.UmbraModule.dll_57C2115365DDF8B2.mvfrm
Library\Bee\artifacts\mvdfrm\UnityEngine.UNETModule.dll_248FBBE182408753.mvfrm
Library\Bee\artifacts\mvdfrm\UnityEngine.UnityAnalyticsModule.dll_D28439C3E6F1AF3C.mvfrm
Library\Bee\artifacts\mvdfrm\UnityEngine.UnityConnectModule.dll_B1D1A35C9AF52D90.mvfrm
Library\Bee\artifacts\mvdfrm\UnityEngine.UnityCurlModule.dll_43B286BAF842097A.mvfrm
Library\Bee\artifacts\mvdfrm\UnityEngine.UnityTestProtocolModule.dll_BAE850C7C280DAE8.mvfrm
Library\Bee\artifacts\mvdfrm\UnityEngine.UnityWebRequestAssetBundleModule.dll_5CDAAA053B4ADF0D.mvfrm
Library\Bee\artifacts\mvdfrm\UnityEngine.UnityWebRequestAudioModule.dll_B624FDA2D8E84B31.mvfrm
Library\Bee\artifacts\mvdfrm\UnityEngine.UnityWebRequestModule.dll_2E58E22640346F39.mvfrm
Library\Bee\artifacts\mvdfrm\UnityEngine.UnityWebRequestTextureModule.dll_BDEC38E3EF52A126.mvfrm
Library\Bee\artifacts\mvdfrm\UnityEngine.UnityWebRequestWWWModule.dll_3A2E6EF8D361BBA2.mvfrm
Library\Bee\artifacts\mvdfrm\UnityEngine.VehiclesModule.dll_8CAC1F2EAF325612.mvfrm
Library\Bee\artifacts\mvdfrm\UnityEngine.VFXModule.dll_FC644A8A6CE46431.mvfrm
Library\Bee\artifacts\mvdfrm\UnityEngine.VideoModule.dll_01F6E9A59B4968E4.mvfrm
Library\Bee\artifacts\mvdfrm\UnityEngine.VRModule.dll_AB32D5A4CC350047.mvfrm
Library\Bee\artifacts\mvdfrm\UnityEngine.WindModule.dll_08384F20C6681043.mvfrm
Library\Bee\artifacts\mvdfrm\UnityEngine.XRModule.dll_DDF198A9556F4DA5.mvfrm
Library\Bee\artifacts\mvdfrm\Unity.VisualScripting.Antlr3.Runtime.dll_6158B4CC2145C5D9.mvfrm